,,2023-10-22,2024-02-14,2024-07-10,2024-07-09,2024-07-15,2024-07-20,2024-07-22,2024-07-22,2024-07-24,2024-07-26,2024-07-29,2024-08-06,2024-08-06,2024-08-08,2024-08-13,2024-08-13,2024-08-18,2024-08-23,2024-08-23,2024-08-25,2024-08-28,2024-09-03,2024-09-04,2024-09-04,2024-09-11,2024-09-14,2024-09-11,2024-09-12,2024-09-12,2024-09-12,2024-09-14,2024-09-15,2024-09-11,2024-09-16,2024-09-16,2024-09-17,2024-09-19,2024-09-19,2024-09-19,2024-09-20,2024-09-20,2024-09-27,2024-09-23,2024-09-26,2024-09-28,2024-10-03,2024-10-02,2024-10-05,2024-10-07,2024-10-07,2024-10-07,2024-10-09,2024-10-12,2024-10-17
Date de fin du sondage,,2023-11-03,2024-02-16,2024-07-11,2024-07-12,2024-07-16,2024-07-23,2024-07-23,2024-07-24,2024-07-28,2024-08-02,2024-07-30,2024-08-08,2024-08-09,2024-08-12,2024-08-14,2024-08-17,2024-08-19,2024-08-26,2024-08-29,2024-08-28,2024-08-30,2024-09-06,2024-09-06,2024-09-15,2024-09-14,2024-09-15,2024-09-16,2024-09-16,2024-09-16,2024-09-17,2024-09-15,2024-09-18,2024-09-19,2024-09-19,2024-09-22,2024-09-24,2024-09-22,2024-09-25,2024-09-25,2024-09-24,2024-09-25,2024-09-28,2024-09-29,2024-09-29,2024-10-08,2024-10-07,2024-10-09,2024-10-08,2024-10-08,2024-10-09,2024-10-10,2024-10-13,2024-10-17,2024-10-19
Taille de l’échantillon (nb. personnes),,600,1000,537,872,800,600,850,1034,804,411,627,1000,693,1738,1000,1312,800,803,789,950,1082,1085,889,890,500,800,1082,1331,1003,1476,800,880,800,450,700,600,1202,474,924,775,1775,1000,408,1090,600,1412,800,1000,800,803,857,1072,2048,1084
Trump,red,48,49,51,48,47,47,48,49,50,48,48,46,46,47,49,47,47,47,47,48,47,50,48,46,46,50,46,46,48,49,50,48,46,48,46,47,48,49,46,49,51,48,48,48,47,47,45,49,49,49,47,50,50,46
Harris,blue,44,40,45,47,40,45,46,49,46,49,47,44,50,50,48,46,46,51,47,48,45,50,46,49,49,48,50,51,48,49,48,47,48,48,46,50,48,50,51,49,48,48,48,45,46,49,46,48,47,48,50,47,47,43
