Date de début du sondage,,2021-01-19,2021-01-27,2021-02-23,2021-03-02,2021-03-05,2021-04-02,2021-04-09,2021-04-12,2021-04-16,2021-05-14,2021-05-18,2021-05-21,2021-05-28,2021-06-04,2021-06-08,2021-06-11,2021-06-20,2021-06-25,2021-06-27,2021-06-28,2021-06-29,2021-07-02,2021-08-20,2021-08-20,2021-08-27,2021-08-31,2021-09-02,2021-09-03,2021-09-11,2021-09-10,2021-09-14,2021-09-17,2021-09-22,2021-09-22,2021-09-24,2021-09-29,2021-09-29,2021-10-01,2021-10-05,2021-10-05,2021-10-05,2021-10-07,2021-10-08,2021-10-09,2021-10-07,2021-10-14,2021-10-15,2021-10-18,2021-10-22,2021-10-25,2021-10-26,2021-10-28,2021-11-03,2021-11-05,2021-11-05,2021-11-10,2021-11-12,2021-11-12,2021-11-15,2021-11-19,2021-11-19,2021-11-23,2021-11-23,2021-11-26
Date de fin du sondage,,2021-01-20,2021-01-28,2021-02-24,2021-03-04,2021-03-11,2021-04-08,2021-04-15,2021-04-14,2021-04-19,2021-05-17,2021-05-20,2021-05-24,2021-05-31,2021-06-07,2021-06-09,2021-06-14,2021-06-21,2021-06-26,2021-06-28,2021-06-29,2021-07-02,2021-07-05,2021-08-22,2021-08-23,2021-08-30,2021-09-02,2021-09-03,2021-09-06,2021-09-13,2021-09-13,2021-09-15,2021-09-20,2021-09-23,2021-09-23,2021-09-27,2021-09-30,2021-10-01,2021-10-04,2021-10-06,2021-10-06,2021-10-11,2021-10-11,2021-10-11,2021-10-13,2021-10-13,2021-10-15,2021-10-18,2021-10-20,2021-10-25,2021-10-27,2021-10-27,2021-10-30,2021-11-05,2021-11-08,2021-11-08,2021-11-11,2021-11-15,2021-11-15,2021-11-17,2021-11-22,2021-11-22,2021-11-24,2021-11-25,2021-11-29
Taille de l’échantillon (nb personnes),,1403,1000,902,1029,2554,1730,10000,2001,1210,1236,1363,1272,1316,1295,901,1304,1279,1499,1003,1124,1337,1260,2000,1343,1328,1334,925,1330,1334,1340,893,1314,1005,980,1379,1500,1351,1310,1309,921,3010,1503,1337,4503,16228,1516,2544,1066,2497,1300,1001,2505,1358,2569,3005,1484,2609,1502,1521,2624,1491,1491,1351,2601
Nathalie ARTHAUD,brown,1,,,1,1,1,,0,1,1,1,1,1,1,0.5,1,1,,1,1,0.5,1,,1,1,0.5,,1,1,1,0.5,1,1.5,1,1,1,0.5,1,1,0.5,1,1.5,1,0.5,1,0.5,1,1,1,1,0.5,1,0.5,1,1,1,1,1.5,1,1,1,1,0,1
Philippe POUTOU,firebrick,1,,,1,1,1,,2,1,1,1,1,1,1,1,1,1,,1,1,1,1,,1,1,1.5,,1,1,1,1,1,2,1,1,1,1,1,1,0.5,2,0.5,1,0.5,1,0.5,1,1,1,1,0.5,1,0.5,1,2,2,1,1.5,1,1,1,1,1,1
Fabien ROUSSEL,darkred,,,,1,2,2.5,2,1,1,2,2,1,1,1,2,2,1,2.5,1,1,3.5,2,2,2,3,2,1.5,2,2,3,3,3,2,3,1,1.5,2,2,2,2,2,1.5,2,1.5,2,2,2,2,2,2,2.5,2,2,2,2,2,2,2,2,2,2,2,2,2
Jean-Luc MÉLENCHON,red,11,9,12,11,10,11,8,11,11,12,12,13,12,11,9,11,10,7,10,9,7,10,7,11,12,8,8,10,8,11,8,11,8,8,13,9,7,11,7,7,8,8,11,8,8,8,10,9,10,7,9,10,8.5,10,8.5,8,10,7,9,10,9,9,7.5,10
Yannick JADOT,green,7,7,9,7,6,6,10,6,6,6,6,6,6,6,5.5,6,7,10,7,6,7,7,11,6,6,8,10,7,7,7,6,6,6,7,6,9,8,6,9,8,6.5,8,7,7,9,7,8,8,8,6,6,8,7,8,6.5,7,8,8,8,8,8,8,7,7
Arnaud MONTEBOURG,palevioletred,,4,,,,,,,,,,,,,,,,,,,,,,,,3,2,5,2,,2,2,4,3,2,1.5,3.5,2,1,2,2,4,2,1.5,2,1.5,3,3,2,3,1,2,2.5,2,2,2,2,2,3,1,1,1,2,2
Anne HIDALGO,pink,6,8,8,6,8,7,8,5,6,6,6,6,6,7,5,7,6,8,6,5,6,7,9,7,7,8.5,9,8,7,7,7,7,4,6,7,5.5,5.5,6,5,5,4.5,4,5,5,5,6,4,5,5,5,7,4,5,4,4.5,5,4,4,5,5,4,4,6,5
Emmanuel MACRON,gold,24,24,31,25,24,24,25,25,26,25,25,25,25,25,26,26,25,24,25,29,24,24,23,21,24,23,24,23,25,23,26,23,26,24,23,24,24,24,25,25,25,26,24,25,24,24,23,25,23,23,23,23,25,23,25,25,23,26,24,23,25,25,25,23
Jean LASSALLE,deepskyblue,,,,,1.5,1.5,,2,0,0.5,0.5,1,1,1,0.5,1,1,,1,2,2,1,,1,1,2,,1,1,1,,0.5,,,0.5,1,1,0.5,1,1,,1,0.5,0.5,1,0.5,0.5,,0.5,1,0.5,0.5,0.5,0.5,1.5,1,0.5,1,,0.5,1,1,0.5,0.5
Xavier BERTRAND,dodgerblue,16,14,21,15,14,16,16,15,15,14,14,14,14,14,13.5,13,16,18,17,14,18,16,15,11,16,16,15,15,15,14,15,14,14,15,14,14,15,13,13,16,13,12,14,15,13,15,14,12,14,13,12.5,14,13,14,12,13,14,12,13,14,13,13,13,14
Nicolas DUPONT-AIGNAN,mediumorchid,7,7,,6,4,5,4,5,5,4,4,4,4,3,3.5,3.5,4,5,4,5,4,2,4,4,4,3,2,3,4,2,3,2,2,,2,1.5,2.5,2,3,2,2,2.5,1,2.5,3,2,1,3,1,3,3.5,1,2.5,1,3,2,1,1.5,3,2,2,2,3,2
Marine LE PEN,indigo,26,25,,25,28,25,27,26,26,27,27,27,28,28,28,28,26,24,24,25,26,22,21,23,23,23,19,19,18,19,20,18,20.5,20,16,16,18,15,16,16,18,16,15,17,15,17,16,18,16,19,17,15,16,15,18,17,16,18,19,16,20,20,19,19
Florian PHILIPPOT,darkslategray,,,,,,,,,,,,,,,,,,,,,,,,2,1,1.5,,1,1,0.5,,1,,,1,,,0.5,1,,,,0.5,,,,0.5,,0.5,1,,1,,1,,0.5,1,,,1,1,1,,1
Éric ZEMMOUR,black,,,17,,,,,,,,,,,,5.5,,,,,,,5,7,,,,8,7,8,10,9,11,10,10,13,15,12,17,13,14,16,14,17,16,16,16,17,13,17,15,15,17,17,18,14,14,17,15,12,16,12,12,14,13
François ASSELINEAU,darkgrey,1,,,1,,,,1,1,1,1,0.5,0.5,1,,1,1,,1,1,,1,,1,1,,,1,1,0.5,,0.5,,,0.5,,,0.5,1,,,1,0.5,,,,0.5,,0.5,1,0.5,0.5,,0.5,,0.5,0.5,1,,0.5,1,1,,0.5
