Date de début du sondage,,2016-11-28,2016-11-28,2016-11-28,2016-12-02,2016-12-02,2016-12-02,2017-01-03,2017-01-03,2017-01-06,2017-01-10,2017-01-20,2017-01-26,2017-01-30,2017-01-29,2017-02-01,2017-02-02,2017-02-07,2017-02-06,2017-02-03,2017-02-07,2017-02-07,2017-02-10,2017-02-10,2017-02-13,2017-02-15,2017-02-17,2017-02-18,2017-02-19,2017-02-20,2017-02-20,2017-02-20,2017-02-22,2017-02-23,2017-02-23,2017-02-28,2017-02-28,2017-02-28,2017-03-01,2017-02-27,2017-03-01,2017-03-02,2017-03-02,2017-03-01,2017-03-05,2017-03-03,2017-03-06,2017-03-03,2017-03-07,2017-03-08,2017-03-12,2017-03-14,2017-03-10,2017-03-15,2017-03-15,2017-03-15,2017-03-17,2017-03-18,2017-03-21,2017-03-21,2017-03-21,2017-03-21,2017-03-22,2017-03-23,2017-03-25,2017-03-26,2017-03-28,2017-03-28,2017-03-29,2017-03-29,2017-03-31,2017-03-30,2017-04-03,2017-04-05,2017-04-05,2017-04-04,2017-04-04,2017-04-05,2017-04-05,2017-04-07,2017-04-09,2017-04-07,2017-04-11,2017-04-11,2017-04-11,2017-04-12,2017-04-12,2017-04-11,2017-04-12,2017-04-13,2017-04-14,2017-04-14,2017-04-16,2017-04-16,2017-04-18,2017-04-18,2017-04-19,2017-04-19,2017-04-19,2017-04-19,2017-04-18,2017-04-20,2017-04-21,2017-04-23
Date de fin du sondage,,2016-11-28,2016-11-29,2016-11-30,2016-12-03,2016-12-04,2016-12-07,2017-01-04,2017-01-06,2017-01-08,2017-01-15,2017-01-20,2017-01-27,2017-01-31,2017-02-01,2017-02-02,2017-02-06,2017-02-08,2017-02-08,2017-02-09,2017-02-09,2017-02-12,2017-02-14,2017-02-14,2017-02-17,2017-02-17,2017-02-20,2017-02-20,2017-02-20,2017-02-22,2017-02-22,2017-02-24,2017-02-23,2017-02-24,2017-02-27,2017-03-02,2017-03-02,2017-03-02,2017-03-02,2017-03-03,2017-03-04,2017-03-04,2017-03-04,2017-03-05,2017-03-06,2017-03-07,2017-03-08,2017-03-09,2017-03-10,2017-03-10,2017-03-15,2017-03-15,2017-03-16,2017-03-16,2017-03-17,2017-03-17,2017-03-19,2017-03-21,2017-03-21,2017-03-22,2017-03-23,2017-03-24,2017-03-24,2017-03-27,2017-03-27,2017-03-29,2017-03-29,2017-03-30,2017-03-30,2017-03-30,2017-04-02,2017-04-03,2017-04-05,2017-04-05,2017-04-05,2017-04-06,2017-04-06,2017-04-06,2017-04-07,2017-04-09,2017-04-10,2017-04-11,2017-04-12,2017-04-13,2017-04-13,2017-04-13,2017-04-13,2017-04-14,2017-04-14,2017-04-15,2017-04-15,2017-04-17,2017-04-17,2017-04-17,2017-04-19,2017-04-19,2017-04-20,2017-04-20,2017-04-20,2017-04-21,2017-04-21,2017-04-21,2017-04-21,2017-04-23
Taille de l’échantillon (nb personnes),,1011,1000,1882,1401,934,18013,925,1860,946,15921,992,702,650,1409,640,1433,961,5432,1500,1407,15874,1402,2066,1500,1399,1838,1051,628,1399,5249,1500,920,1005,1404,1394,1591,1413,943,1500,1392,1027,1822,15887,1052,1390,4533,1500,1379,1419,1399,11990,1500,964,1501,1508,3010,1695,997,6955,1500,2225,1431,586,1005,2241,1040,1500,969,1418,9460,2232,6274,995,1001,1500,2243,1014,1421,1515,1604,807,2806,776,1500,1002,1509,1001,2776,1439,642,1851,1530,1170,8274,1427,2812,1197,1401,1500,2823,1494,953,45700000
François Fillon,dodgerblue,30,30,29,28,27.5,27,26,24.5,24,25,26,22,20,21,20,18.5,18,19,20,20,18.5,18.5,17.8,20,18.5,20,21,19,19,21,21,19,20,20,21,19,19,19,19,20,17,18.5,17.5,19,19,20,20,19.5,20,18.5,17.5,20,19,19.5,17,17.5,17.5,17,18,19,18,17,15.5,18,17.5,18,19,17,19,17.5,17,18,19,18.5,20,18.5,19,19,17,18,19,19,20,20,20,19,18.5,19,20,17.5,19,18.5,19.5,19.5,19,19,20,19,21,19.5,19,19,20.01
