,,2022-06-12,2022-11-02,2022-11-04,2023-03-03,2023-03-20,2023-04-03,2023-12-12,2024-06-09,2024-06-10,2024-06-10,2024-06-11,2024-06-11,2024-06-11,2024-06-12,2024-06-13,2024-06-14,2024-06-17,2024-06-18,2024-06-18,2024-06-19,2024-06-19,2024-06-19,2024-06-19,2024-06-19,2024-06-20,2024-06-21,2024-06-21,2024-06-22,2024-06-25,2024-06-25,2024-06-24,2024-06-26,2024-06-26,2024-06-26,2024-06-25,2024-06-27,2024-06-27
Date de fin du sondage,,2022-06-12,2022-11-04,2022-11-06,2023-03-07,2023-03-21,2023-04-05,2023-12-13,2024-06-10,2024-06-10,2024-06-11,2024-06-12,2024-06-12,2024-06-13,2024-06-13,2024-06-14,2024-06-17,2024-06-19,2024-06-20,2024-06-20,2024-06-20,2024-06-20,2024-06-20,2024-06-20,2024-06-21,2024-06-24,2024-06-24,2024-06-24,2024-06-24,2024-06-26,2024-06-26,2024-06-27,2024-06-27,2024-06-27,2024-06-27,2024-06-28,2024-06-28,2024-06-28
Taille de l’échantillon (nb personnes),,22745492,1513,2151,2108,1094,1808,1100,2340,1095,1089,1502,1019,2764,1011,1114,1131,2699,1861,1057,2263,2006,1009,2000,2002,1843,2325,11820,2503,2014,1035,2823,1871,1058,1896,2824,2182,10286
Participation,green,46,,,,,,,,,,,,,,63,62,,,,,64,,62,,63.5,,63,,,,66,64,65,66,67,,64
Extrême gauche,firebrick,1.2,1.5,1.5,1,1,1,1.5,3,1,1,1,1,1,1,1,1.5,1,1,1,1,2,1,1.5,1,1,1,1,1.5,0.5,1,0.5,1,1,1,1,0.5,1
Nouveau front populaire,red,25.7,25,24.5,24,26,25.5,24,22,23,25,28,25,28.5,25,26,28,30,29,27,26,28,28,29.5,27,29.5,27,29,30,27,28,29,27.5,28,27.5,29,28,29
Divers gauche,lightsalmon,3.7,4,3,6,5,3,6,9,4,5,5,3,3,2,3.5,3,3,1,2,1,3,1,1,2,1,1,1,1.5,1,1,1,2,1,1.5,1,1,1
Divers écologie,yellow,2.7,,,,,,,,2,,,1,1.5,2,,,,,1,,1.5,1,,,,,,,,1,,,1,1,,,
Divers centre,mediumorchid,1.3,,0.5,1,,,,,,,,,1,,,,,1,,1,,,1,0.5,1,1,1.5,1,0.5,,1,0.5,,,1,1,1.5
Ensemble  !,gold,25.8,27,25,24,22,21.5,19,19,18,18,18,19,18,20,19,18,19,22,20,21,19,22,19.5,20,20.5,20,19.5,19.5,21,20,21,20,20,21,20.5,20,20
Divers droite,blue,7.95,7.5,7.25,8,7,6.75,8.5,5.5,6,6,5.25,5.5,6,5.5,5,7,9.5,6,9,8,8,9,8.5,10,7,9,8,9,8,9,6.5,9,8,9,7,8,8
Rassemblement national,indigo,24.35,26.5,25.25,27,31,31.75,33.5,37.5,37,39.5,34.25,36.5,33,36.5,38.5,37,32,34,35,35,33,35,35.5,36,36,37,36,34.5,37,36,36,36,37,35,36.5,37,36
Union pour la France,navy,1.1,0.5,2,1,1,1.5,1,,,0.5,,,1.5,1,1,0.5,,,,,,,,,,,,,,,,,,,,,0.5
Reconquête,black,4.2,5.5,5,4,5,4.5,5,4,5,4,4,4,3.5,3,3,3,2.5,2,2,3,3.5,1,2,1.5,1,2,1.5,1.5,2,2,1.5,1.5,1,1.5,1.5,2,1
Autres,grey,3.3,2.5,6,4,2,6,1.5,,4,1,4.5,5,3,3,3,2,3,4,4,4,2,3,1.5,2,3,2,2.5,1.5,3,2,3.5,2.5,4,2.5,3,2.5,2
